<?xml version="1.0" encoding="utf-8"?>
<!-- Generator: Adobe Illustrator 21.1.0, SVG Export Plug-In . SVG Version: 6.00 Build 0)  -->
<svg version="1.1" id="Layer_1" xmlns="http://www.w3.org/2000/svg" xmlns:xlink="http://www.w3.org/1999/xlink" x="0px" y="0px"
	 viewBox="0 0 18.8 16.5" style="enable-background:new 0 0 18.8 16.5;" xml:space="preserve">
<style type="text/css">
	.st0{fill:#FB515F;stroke:#010101;stroke-width:0.8;stroke-linecap:round;stroke-linejoin:round;}
</style>
<path class="st0" d="M17,1.8c-1.8-1.9-4.8-1.9-6.7,0l0,0L9.4,2.7L8.5,1.8c-1.9-1.9-4.8-1.9-6.7,0s-1.9,4.8,0,6.7l0.9,0.9l6.7,6.7
	l6.7-6.7L17,8.5C18.9,6.6,18.9,3.6,17,1.8L17,1.8z"/>
</svg>
