<?xml version="1.0" encoding="UTF-8"?>
<svg width="38px" height="35px" viewBox="0 0 38 35" version="1.1" xmlns="http://www.w3.org/2000/svg" xmlns:xlink="http://www.w3.org/1999/xlink">
    <!-- Generator: Sketch 47.1 (45422) - http://www.bohemiancoding.com/sketch -->
    <title>Orion_briefcase</title>
    <desc>Created with Sketch.</desc>
    <defs></defs>
    <g id="TWPM" stroke="none" stroke-width="1" fill="none" fill-rule="evenodd" stroke-linecap="round">
        <g id="Services-Screen---first-login" transform="translate(-43.000000, -508.000000)" stroke="#FFFFFF" stroke-width="2">
            <g id="Left-Menu" transform="translate(1.000000, 0.000000)">
                <g id="Documents" transform="translate(16.000000, 509.000000)">
                    <g id="Orion_briefcase" transform="translate(27.000000, 0.000000)">
                        <path d="M12.0000006,7.26000034 L12.0000006,4.80000023 C12.0000006,2.1490333 14.1490339,5.32907077e-16 16.8000008,0 L19.2000009,0 C21.8509678,0 24.0000011,2.1490333 24.0000011,4.80000023 L24.0000011,7.14000034" id="Shape"></path>
                        <path d="M20.400001,22.8000011 L36.0000017,22.8000011 L36.0000017,9.60000045 C36.0000017,8.27451699 34.925485,7.20000034 33.6000016,7.20000034 L2.40000011,7.20000034 C1.07451665,7.20000034 2.66453538e-16,8.27451699 0,9.60000045 L0,22.8000011 L15.6000007,22.8000011 M34.8000016,22.8000011 L34.8000016,32.4000015 L1.20000006,32.4000015 L1.20000006,22.8000011" id="Shape"></path>
                        <polygon id="Shape" points="15.6000007 20.400001 20.400001 20.400001 20.400001 25.2000012 15.6000007 25.2000012"></polygon>
                    </g>
                </g>
            </g>
        </g>
    </g>
</svg>