<?xml version="1.0" encoding="utf-8"?>
<!-- Generator: Adobe Illustrator 21.1.0, SVG Export Plug-In . SVG Version: 6.00 Build 0)  -->
<svg version="1.1" id="Layer_1" xmlns="http://www.w3.org/2000/svg" xmlns:xlink="http://www.w3.org/1999/xlink" x="0px" y="0px"
	 viewBox="0 0 169 118" style="enable-background:new 0 0 169 118;" xml:space="preserve">
<style type="text/css">
	.st0{fill:#CDCCCC;}
	.st1{opacity:0.71;fill:#E64D3C;}
	.st2{opacity:0.71;fill:#F0C419;}
	.st3{opacity:0.71;fill:#4FBA6F;}
	.st4{fill:#E6E6E5;}
	.st5{fill:#FAFBFB;}
	.st6{fill:#CCCCCC;}
</style>
<g>
	<path class="st0" d="M169.5,5.5H0.5V1.1c0-0.6,0.5-0.6,1.1-0.6h167c0.6,0,1,0,1,0.6V5.5z"/>
	<circle class="st1" cx="3.2" cy="2.7" r="1"/>
	<circle class="st2" cx="6.5" cy="2.7" r="1"/>
	<circle class="st3" cx="9.8" cy="2.7" r="1"/>
	<path class="st4" d="M35.7,1.9c-0.1-0.3-0.3-0.4-0.6-0.4H15.9c-0.3,0-0.5,0.2-0.6,0.4l-0.8,2.9C14.3,5.1,14,5.5,14,5.5h23
		c0,0-0.3-0.4-0.4-0.6L35.7,1.9z"/>
	<path class="st5" d="M169.5,116.5c0,0.7-0.4,2-1.1,2H1.7c-0.7,0-1.2-1.2-1.2-2V9.5h169V116.5z"/>
	<rect x="0.5" y="5.5" class="st4" width="169" height="4"/>
</g>
<path class="st6" d="M152.9,106.2h-26c-3.7,0-6.8-3.1-6.8-6.8V27.9c0-3.7,3.1-6.8,6.8-6.8h26c3.7,0,6.8,3.1,6.8,6.8v71.4
	C159.7,103.1,156.6,106.2,152.9,106.2z"/>
</svg>
