<?xml version="1.0" encoding="utf-8"?>
<!-- Generator: Adobe Illustrator 21.1.0, SVG Export Plug-In . SVG Version: 6.00 Build 0)  -->
<svg version="1.1" id="Layer_1" xmlns="http://www.w3.org/2000/svg" xmlns:xlink="http://www.w3.org/1999/xlink" x="0px" y="0px"
	 viewBox="0 0 12.8 12.8" style="enable-background:new 0 0 12.8 12.8;" xml:space="preserve">
<style type="text/css">
	.st0{fill:none;stroke:#010101;stroke-width:0.8;stroke-linecap:round;stroke-linejoin:round;}
</style>
<g>
	<line class="st0" x1="12.4" y1="0.4" x2="0.4" y2="12.4"/>
	<line class="st0" x1="0.4" y1="0.4" x2="12.4" y2="12.4"/>
</g>
</svg>
