<?xml version="1.0" encoding="utf-8"?>
<!-- Generator: Adobe Illustrator 21.1.0, SVG Export Plug-In . SVG Version: 6.00 Build 0)  -->
<svg version="1.1" id="Layer_1" xmlns="http://www.w3.org/2000/svg" xmlns:xlink="http://www.w3.org/1999/xlink" x="0px" y="0px"
	 viewBox="0 0 16.1 17.8" style="enable-background:new 0 0 16.1 17.8;" xml:space="preserve">
<style type="text/css">
	.st0{fill:none;stroke:#010101;stroke-width:0.8;stroke-linecap:round;stroke-linejoin:round;}
</style>
<g>
	<path class="st0" d="M13.5,4.3c3,3,3,7.8,0,10.8s-7.8,3-10.8,0c-3-3-3-7.8,0-10.8"/>
	<line class="st0" x1="8.1" y1="0.4" x2="8.1" y2="8.9"/>
</g>
</svg>
