<?xml version="1.0" encoding="utf-8"?>
<!-- Generator: Adobe Illustrator 21.1.0, SVG Export Plug-In . SVG Version: 6.00 Build 0)  -->
<svg version="1.1" id="Layer_1" xmlns="http://www.w3.org/2000/svg" xmlns:xlink="http://www.w3.org/1999/xlink" x="0px" y="0px"
	 viewBox="0 0 28.1 28.1" style="enable-background:new 0 0 28.1 28.1;" xml:space="preserve">
<style type="text/css">
	.st0{fill:#666666;}
</style>
<polygon class="st0" points="16.1,14 28,2.1 26,0.1 14.1,12 2.1,0 0.1,2 12.1,14 0,26.1 2,28.1 14.1,16 26.1,28 28.1,26.1 "/>
</svg>
