<?xml version="1.0" encoding="utf-8"?>
<!-- Generator: Adobe Illustrator 22.0.1, SVG Export Plug-In . SVG Version: 6.00 Build 0)  -->
<svg version="1.1" id="Layer_1" xmlns="http://www.w3.org/2000/svg" xmlns:xlink="http://www.w3.org/1999/xlink" x="0px" y="0px"
	 viewBox="0 0 18.8 14.7" style="enable-background:new 0 0 18.8 14.7;" xml:space="preserve">
<style type="text/css">
	.st0{fill:none;stroke:#010101;stroke-width:0.8;stroke-linecap:round;stroke-linejoin:round;}
</style>
<polyline class="st0" points="0.4,2.2 0.4,6.8 5,6.8 "/>
<polyline class="st0" points="18.4,13.5 18.4,8.9 13.8,8.9 "/>
<path class="st0" d="M16.5,5c-1.3-3.6-5.3-5.5-8.9-4.2C6.6,1.1,5.7,1.7,5,2.4L1.4,5.8 M18.4,8.9l-3.6,3.4C12.1,15,7.7,15,5,12.3
	c-0.7-0.7-1.3-1.6-1.6-2.6"/>
</svg>
