<?xml version="1.0" encoding="utf-8"?>
<!-- Generator: Adobe Illustrator 21.1.0, SVG Export Plug-In . SVG Version: 6.00 Build 0)  -->
<svg version="1.1" id="Layer_1" xmlns="http://www.w3.org/2000/svg" xmlns:xlink="http://www.w3.org/1999/xlink" x="0px" y="0px"
	 viewBox="0 0 22 14.9" style="enable-background:new 0 0 22 14.9;" xml:space="preserve">
<style type="text/css">
	.st0{fill:none;stroke:#010101;stroke-width:0.8;stroke-linecap:round;stroke-linejoin:round;}
</style>
<g>
	<polygon class="st0" points="9.5,0.4 4.4,4.4 0.4,4.4 0.4,10.5 4.4,10.5 9.5,14.5 	"/>
	<line class="st0" x1="21.6" y1="4.4" x2="15.5" y2="10.5"/>
	<line class="st0" x1="15.5" y1="4.4" x2="21.6" y2="10.5"/>
</g>
</svg>
