"Product","ASIN","Order Number","Customer Name","Email","Address","Ship To Name","Ship To Address 1","Ship To City","Ship To State","Ship To Zip Code","Ship To Country","Review","Survey Date"
"BOLDIFY Dry Texturizing Spray","B075GFDK5X","FBLD10003","Sunny","shubhamgakhar.luminoguru@gmail.com","Qijia Zhang 150 E 34TH ST APT 2805   NEW YORK NY 10016-4744 US","Qijia Zhang","150 E 34TH ST APT 2805","NEW YORK","NY","10016-4744","US","I like it","2019-06-05 23:04:12"
"BOLDIFY Hair Thickening Spray (4oz)","B01GSTR6Z8","FBLD10002","Customers","shubhamgakhar.luminoguru@gmail.com","Nancy Rudd 1226 HIGHWAY 165 PO BOX 147  FORT MITCHELL AL 36856-5166 US","Nancy Rudd","1226 HIGHWAY 165","FORT MITCHELL","AL","36856-5166","US","I like it","2019-06-05 04:28:49"
"BOLDIFY Hair Boost Shampoo","B06XZR1KWK","FBLD10001","My Name","shubhamgakhar.luminoguru@gmail.com","James G Franklin III 7028 DEER LODGE CIR UNIT 112   JACKSONVILLE FL 32256-8546 US","James G Franklin III","7028 DEER LODGE CIR UNIT 112","JACKSONVILLE","FL","32256-8546","US","I like it","2019-06-05 04:26:28"
"BOLDIFY Hair Thickening Fibers (BLACK)","B01G4NMIQK","","Anshu","shubhamgakhar.luminoguru@gmail.com","Andre Golsorkhi 105 S 12TH ST APT 303   PHILADELPHIA PA 19107-4826 US","Andre Golsorkhi","105 S 12TH ST APT 303","PHILADELPHIA","PA","19107-4826","US","I like it","2019-06-05 03:58:50"
"BOLDIFY Hair Boost Conditioner","B06XZWKSY3","","Anshu","shubhamgakhar.luminoguru@gmail.com","Sebastien Braun 1320 S FEDERAL ST UNIT F   CHICAGO IL 60605-3442 US","Sebastien Braun","1320 S FEDERAL ST UNIT F","CHICAGO","IL","60605-3442","US","I like it","2019-06-05 03:44:20"
"Color Hydrating Argan Oil Shampoo and Conditioner by BOLDIFY - 100% SLS Sulfate and Paraben Free - The Best Treatment for Keratin Treated, Damaged, Dr","B01MT9UKS7","","Delhi","shubhamgakhar.luminoguru@gmail.com","Eva Tobie 9202 SW HARBOR DR   VASHON WA 98070-7030 US","Eva Tobie","9202 SW HARBOR DR","VASHON","WA","98070-7030","US","It's ok","2019-06-04 21:56:21"
"BOLDIFY Hair Thickening Fibers (DARK BROWN)","B01G4NMIZG","","Customers","shubhamgakhar.luminoguru@gmail.com","FRANCES R. LEWIS  PO BOX 1035  SILVER CITY NM 88062 US","FRANCES R. LEWIS","","SILVER CITY","NM","88062","US","It's ok","2019-06-04 21:53:57"